…
    ## Classes 'data.table' and 'data.frame':   100000 obs. of  3 variables:
    ##  $ ind: int  1 2 3 4 5 6 7 8 9 10 ...
    ##  $ grp: chr  "b" "a" "c" "b" ...
    ##  $ val: num  -0.5453 -1.4466 0.0808 -0.6143 -1.5132 ...
    ##  - attr(*, ".internal.selfref")=<externalptr>

``` r
#print methods----------------------------------------
df
```

    ## # A tibble: 100,000 × 3
    ##      ind   grp         val
    ##    <int> <chr>       <dbl>
    ## 1      1     b -0.54528051
    ## 2      2     a -1.44659698
    ## 3      3     c  0.08082766
    ## 4      4     b -0.61431850
    ## 5      5     c -1.51320799
    ## 6      6     b -0.32294980
    ## 7      7     c  0.40916513
    ## 8      8     c  0.74801291
    ## 9      9     b  0.62383372
    ## 10    10     a  0.19813085
    ## # ... with 99,990 more rows
…
dt[,new_col := NULL]
```

Create column without storing
-----------------------------

Some new shorthand is again introced in the `data.table` syntax used here. The `.SD` references all columns not included in the grouping `by` argument of `` `[.data.table` ``. This evaluates to a list of columns (i.e. a dataframe), and we can add columns by `c`ombining a new list of columns to `.SD`. If `j` evaluates to a list of equal lenght columns `` `[.data.table` `` will interpret it as a `data.table`.

``` r
df %>% 
  mutate(new_col = runif(nrow(.)))
```

    ## # A tibble: 100,000 × 4
    ##      ind   grp         val   new_col
    ##    <int> <chr>       <dbl>     <dbl>
    ## 1      1     b -0.54528051 0.4302584
    ## 2      2     a -1.44659698 0.6446282
    ## 3      3     c  0.08082766 0.5114203
    ## 4      4     b -0.61431850 0.9204234
    ## 5      5     c -1.51320799 0.6493419
    ## 6      6     b -0.32294980 0.5688315
    ## 7      7     c  0.40916513 0.1372726
    ## 8      8     c  0.74801291 0.8770839
    ## 9      9     b  0.62383372 0.7419305
    ## 10    10     a  0.19813085 0.2833246
    ## # ... with 99,990 more rows
…
dt[dt2]
merge(dt, dt2, by = "ind", all.x = TRUE)
```

Transforming columns
====================

``` r
df %>% 
  mutate_all(as.character)
```

    ## # A tibble: 100,000 × 3
    ##      ind   grp                val
    ##    <chr> <chr>              <chr>
    ## 1      1     b -0.545280508170098
    ## 2      2     a  -1.44659697798738
    ## 3      3     c 0.0808276614999396
    ## 4      4     b -0.614318501663225
    ## 5      5     c  -1.51320799247204
    ## 6      6     b -0.322949797444465
    ## 7      7     c  0.409165129048615
    ## 8      8     c   0.74801290811267
    ## 9      9     b  0.623833723477989
    ## 10    10     a  0.198130852264119
    ## # ... with 99,990 more rows
…
